{
	"info": {
		"_postman_id": "2515e9b0-bf2f-4d2d-bc5e-a76eaf988ea8",
		"name": "postman_collection",
		"schema": "https://schema.getpostman.com/json/collection/v2.1.0/collection.json"
	},
	"item": [
		{
			"name": "Adiciona usuário",
			"request": {
				"method": "POST",
				"header": [
					{
						"key": "Content-Type",
						"name": "Content-Type",
						"value": "application/json",
						"type": "text"
					}
				],
				"body": {
					"mode": "raw",
					"raw": "{\n\t\"name\": \"Jon Doe\",\n\t\"email\": \"jdoe@email.com\"\n}"
				},
				"url": {
					"raw": "http://localhost:8080/api/users/new",
					"protocol": "http",
					"host": [
						"localhost"
					],
					"port": "8080",
					"path": [
						"api",
						"users",
						"new"
					]
				}
			},
			"response": []
		},
		{
			"name": "Lista usuários",
			"request": {
				"method": "GET",
				"header": [],
				"url": {
					"raw": "http://localhost:8080/api/users/",
					"protocol": "http",
					"host": [
						"localhost"
					],
					"port": "8080",
					"path": [
						"api",
						"users",
						""
					]
				}
			},
			"response": []
		},
		{
			"name": "Calcula digíto único sem associar ao usuário",
			"request": {
				"method": "GET",
				"header": [],
				"url": {
					"raw": "http://localhost:8080/api/users/calculate?numero=13&concatenacao=1",
					"protocol": "http",
					"host": [
						"localhost"
					],
					"port": "8080",
					"path": [
						"api",
						"users",
						"calculate"
					],
					"query": [
						{
							"key": "numero",
							"value": "13"
						},
						{
							"key": "concatenacao",
							"value": "1"
						}
					]
				}
			},
			"response": []
		},
		{
			"name": "Calcula dígito único para o usuário",
			"request": {
				"method": "POST",
				"header": [],
				"url": {
					"raw": "http://localhost:8080/api/users/calculateForUser/1?numero=13&concatenacao=1",
					"protocol": "http",
					"host": [
						"localhost"
					],
					"port": "8080",
					"path": [
						"api",
						"users",
						"calculateForUser",
						"1"
					],
					"query": [
						{
							"key": "numero",
							"value": "13"
						},
						{
							"key": "concatenacao",
							"value": "1"
						}
					]
				}
			},
			"response": []
		},
		{
			"name": "Mostra a chave privada do usuário",
			"request": {
				"method": "GET",
				"header": [],
				"url": {
					"raw": "http://localhost:8080/api/users/key/1",
					"protocol": "http",
					"host": [
						"localhost"
					],
					"port": "8080",
					"path": [
						"api",
						"users",
						"key",
						"1"
					]
				}
			},
			"response": []
		},
		{
			"name": "Lista resultados para o usuário",
			"request": {
				"method": "GET",
				"header": [],
				"url": {
					"raw": "http://localhost:8080/api/users/results/1",
					"protocol": "http",
					"host": [
						"localhost"
					],
					"port": "8080",
					"path": [
						"api",
						"users",
						"results",
						"1"
					]
				}
			},
			"response": []
		},
		{
			"name": "Atualiza usuário",
			"request": {
				"method": "POST",
				"header": [
					{
						"key": "Content-Type",
						"name": "Content-Type",
						"value": "application/json",
						"type": "text"
					}
				],
				"body": {
					"mode": "raw",
					"raw": "{\n\t\"name\": \"Jon Doe\",\n\t\"email\": \"jdoe@newemail.com\"\n}"
				},
				"url": {
					"raw": "http://localhost:8080/api/users/update/1",
					"protocol": "http",
					"host": [
						"localhost"
					],
					"port": "8080",
					"path": [
						"api",
						"users",
						"update",
						"1"
					]
				}
			},
			"response": []
		},
		{
			"name": "Remove usuário",
			"request": {
				"method": "DELETE",
				"header": [],
				"url": {
					"raw": "http://localhost:8080/api/users/delete/1",
					"protocol": "http",
					"host": [
						"localhost"
					],
					"port": "8080",
					"path": [
						"api",
						"users",
						"delete",
						"1"
					]
				}
			},
			"response": []
		}
	]
}